Event,Age,Sex,Equipment,Division,WeightClassKg,Name,BodyweightKg,Best3SquatKg,Best3BenchKg,Best3DeadliftKg,TotalKg,BirthDate,Place
SBD,61,F,Raw,Amateur Masters 60-64,52,Diane Thomas,50.89,81.65,43.09,108.86,233.6,,1
SBD,24,F,Wraps,Amateur Open,60,Rachael Keneipp,59.51,104.33,56.7,138.35,299.37,,2
SBD,31,F,Wraps,Amateur Open,60,Melissa Linden,59.87,111.13,70.31,142.88,324.32,,1
SBD,40,F,Wraps,Amateur Masters 40-44,67.5,Ellie Farrell,65.23,86.18,54.43,113.4,254.01,,2
SBD,43,F,Wraps,Amateur Masters 40-44,67.5,Lauren Fiske,66.68,115.67,58.97,111.13,285.76,,1
SBD,23,F,Raw,Amateur Juniors 20-23,67.5,Rachel Headlam,65.86,56.7,31.75,113.4,201.85,,1
SBD,39,F,Raw,Amateur Submasters 33-39,67.5,Stephanie Scott,66.32,124.74,65.77,161.03,351.53,,1
SBD,50,F,Wraps,Pro Masters 50-54,75,Val Johnson,73.03,90.72,56.7,111.13,258.55,,1
SBD,25,F,Raw,Amateur Open,75,Kathryn Hannah Smith,73.3,115.67,61.23,158.76,335.66,,2
SBD,22,F,Raw,Amateur Open,75,Anna Duan,74.3,117.93,70.31,161.03,349.27,,1
SBD,47,F,Wraps,Amateur Masters 45-49,82.5,Tricia Elliott,77.56,113.4,72.57,117.93,303.91,,1
SBD,35,F,Wraps,Amateur Open,82.5,Kelsey Honeyford,81.1,136.08,81.65,165.56,383.29,,1
SBD,36,F,Raw,Amateur Open,82.5,Jennifer Pompper,79.74,113.4,65.77,136.08,315.25,,1
SBD,57,F,Wraps,Amateur Masters 55-59,90,Dawn Kleinman,85.64,77.11,54.43,102.06,233.6,,1
SBD,14,F,Wraps,Amateur Teen 14-15,100,Audrey Bennett,90.99,106.59,49.9,113.4,269.89,,1
SBD,27,M,Raw,Amateur Open,75,Colton Rex,72.03,183.7,129.27,240.4,553.38,,2
SBD,31,M,Raw,Amateur Open,75,Lawrence Marquez,74.12,233.6,136.08,256.28,625.96,,1
SBD,20,M,Wraps,Pro Juniors 20-23,82.5,Jonathin Leicy,78.02,215.46,167.83,247.21,630.49,,1
SBD,27,M,Raw,Amateur Open,82.5,Jacob Hamilton,76.38,102.06,77.11,142.88,322.05,,1
SBD,14,M,Raw,Amateur Teen 14-15,82.5,AJ DeAngelis,79.38,,,,,,DQ
SBD,30,M,Raw,Police Amateur Open,82.5,Nicholas Squires,81.37,204.12,138.35,229.06,571.53,,1
SBD,30,M,Raw,Police Pro Open,82.5,Nicholas Squires,81.37,204.12,138.35,229.06,571.53,,1
SBD,28,M,Raw,Pro Open,82.5,Chris Cooke,81.56,222.26,151.95,265.35,639.57,,1
SBD,36,M,Wraps,Amateur Open,90,James Del Verde,89.54,163.29,124.74,199.58,487.61,,2
SBD,33,M,Wraps,Amateur Open,90,Matthew Maze,89.99,215.46,127.01,267.62,610.08,,1
SBD,37,M,Wraps,Amateur Submasters 33-39,90,John Roy,88.18,185.97,133.81,229.06,548.85,,1
SBD,19,M,Wraps,Amateur Teen 18-19,90,Nathanael Moynihan,87.91,215.46,142.88,265.35,623.69,,1
SBD,22,M,Raw,Amateur Juniors 20-23,90,Nick Ransom,89.63,206.38,124.74,,,,DQ
SBD,29,M,Raw,Amateur Open,90,Daniel Kelly,83.73,158.76,102.06,201.85,462.66,,2
SBD,36,M,Raw,Amateur Open,90,Tony Colemire,89.36,206.38,165.56,217.72,589.67,,1
SBD,36,M,Raw,Amateur Submasters 33-39,90,Tony Colemire,89.36,206.38,165.56,217.72,589.67,,1
SBD,36,M,Raw,Military Amateur Open,90,Tony Colemire,89.36,206.38,165.56,217.72,589.67,,1
SBD,51,M,Raw,Military Pro Masters 50+,90,Chris Johnson,88.09,158.76,127.01,188.24,474,,1
SBD,51,M,Raw,Pro Masters 50-54,90,Chris Johnson,88.09,158.76,127.01,188.24,474,,1
SBD,26,M,Raw,Pro Open,90,Jesse Hammond,89.99,265.35,170.1,306.17,741.62,,1
SBD,35,M,Raw,Pro Submasters 33-39,90,Tj Forhez,85.37,192.78,142.88,238.14,573.79,,1
SBD,20,M,Raw,Amateur Juniors 20-23,100,Ben Pennycoff,90.54,226.8,138.35,233.6,598.74,,2
SBD,21,M,Raw,Amateur Juniors 20-23,100,Jack Conrad,97.61,247.21,174.63,294.84,716.68,,1
SBD,46,M,Raw,Amateur Masters 45-49,100,Bryan Martin,99.97,219.99,156.49,258.55,635.03,,1
SBD,31,M,Raw,Amateur Open,100,Jordan Rocchino,95.8,181.44,136.08,210.92,528.44,,1
SBD,26,M,Raw,Amateur Open,100,Joe Zambito,94.89,226.8,,,,,DQ
SBD,39,M,Raw,Amateur Submasters 33-39,100,Mitchell Metcalf,99.88,210.92,151.95,249.48,612.35,,2
SBD,35,M,Raw,Amateur Submasters 33-39,100,Scott Pasternacki,98.43,204.12,172.37,258.55,635.03,,1
SBD,27,M,Raw,Pro Open,100,Josh Gallone,92.08,317.51,188.24,294.84,800.59,,1
SBD,33,M,Single-ply,Pro Open,100,Travis P. Rogers,99.34,340.19,265.35,324.32,929.86,,1
SBD,36,M,Unlimited,Pro Open,100,John Gaglione,99.16,376.48,265.35,301.64,943.47,,1
SBD,36,M,Unlimited,Pro Submasters 33-39,100,John Gaglione,99.16,376.48,265.35,301.64,943.47,,1
SBD,29,M,Wraps,Pro Open,110,Michael Yucha,108.68,290.3,199.58,283.5,773.37,,1
SBD,47,M,Raw,Pro Masters 45-49,110,Michael Jones,108.23,344.73,208.65,283.5,836.88,,1
SBD,22,M,Raw,Amateur Juniors 20-23,125,Xander Duerksen,114.76,231.33,174.63,265.35,671.32,,1
SBD,46,M,Raw,Military Pro Open,125,Jeremy Cheatwood,116.85,215.46,158.76,249.48,623.69,,1
SBD,42,M,Raw,Pro Masters 40-44,125,Kenneth Bridgman,115.3,226.8,142.88,260.82,630.49,,1
SBD,46,M,Raw,Pro Masters 45-49,125,Jeremy Cheatwood,116.85,215.46,158.76,249.48,623.69,,1
SBD,56,M,Raw,Pro Masters 55-59,125,David Johns,124.01,288.03,176.9,322.05,786.98,,1
SBD,42,M,Raw,Pro Open,125,Kenneth Bridgman,115.3,226.8,142.88,260.82,630.49,,3
SBD,37,M,Raw,Pro Open,125,Tom Smith,116.57,278.96,181.44,303.91,764.3,,2
SBD,28,M,Raw,Pro Open,125,Austin Forte,123.65,392.36,233.6,317.51,943.47,,1
SBD,37,M,Raw,Pro Submasters 33-39,125,Tom Smith,116.57,278.96,181.44,303.91,764.3,,1
SBD,42,M,Raw,Amateur Masters 40-44,140,Michael Jones,134.99,274.42,206.38,272.16,752.96,,1
SBD,35,M,Raw,Amateur Open,140,Thomas Cedeno,139.53,229.06,181.44,272.16,682.66,,2
SBD,42,M,Raw,Amateur Open,140,Michael Jones,134.99,274.42,206.38,272.16,752.96,,1
SBD,31,M,Raw,Pro Open,140+,Mason Dechert,158.49,344.73,213.19,317.51,875.43,,1
BD,57,F,Raw,Amateur Masters 55-59,56,Patricia Malone,55.88,,36.29,92.99,129.27,,1
BD,53,F,Raw,Pro Open,90,Barbara Coles,88.9,,127.01,212.05,339.06,,1
BD,53,F,Raw,Pro Masters 50-54,90,Barbara Coles,88.9,,127.01,212.05,339.06,,1
BD,47,M,Raw,Pro Masters 45-49,110,Michael Jones,108.23,,208.65,283.5,492.15,,1
BD,39,M,Raw,Pro Submasters 33-39,125,David Washington,117.21,,210.92,299.37,510.29,,1
B,36,F,Raw,Amateur Submasters 33-39,60,Victoria McFarland,59.06,,79.38,,79.38,,1
B,25,F,Raw,Amateur Open,75,Sarah Keiser,67.86,,79.38,,79.38,,1
B,33,M,Raw,Amateur Open,90,Daniel Paveletz,87.54,,145.15,,145.15,,1
B,71,M,Raw,Amateur Masters 70-74,100,Don Longlott,98.97,,111.13,,111.13,,1
B,33,M,Raw,Amateur Submasters 33-39,100,Samuel May,97.43,,161.03,,161.03,,1
B,28,M,Raw,Amateur Open,110,Brent Buss,105.05,,,,,,DQ
B,64,M,Raw,Pro Masters 60-64,110,Todd English,108.23,,142.88,,142.88,,1
B,47,M,Raw,Pro Masters 45-49,110,Michael Jones,108.23,,208.65,,208.65,,1
B,52,M,Raw,Pro Masters 50-54,125,Gary Visnofsky,111.58,,199.58,,199.58,,1
B,49,M,Raw,Amateur Masters 45-49,140,Abraham Vragazis,138.8,,158.76,,158.76,,1
B,42,M,Raw,Amateur Masters 40-44,140,Michael Jones,134.99,,206.38,,206.38,,1
B,42,M,Raw,Amateur Open,140,Michael Jones,134.99,,206.38,,206.38,,1
B,33,M,Raw,Amateur Submasters 33-39,140+,Howie Furman,155.67,,156.49,,156.49,,1
D,24,M,Raw,Amateur Open,100,John Cottingham,92.9,,,206.38,206.38,,2
D,20,M,Raw,Amateur Open,100,Broderick Bolyn,97.43,,,308.44,308.44,,1
S,47,M,Raw,Pro Masters 45-49,110,Michael Jones,108.23,344.73,,,344.73,,1
